%YAML 1.1
%TAG !u! tag:unity3d.com,2011:
--- !u!74 &7400000
AnimationClip:
  m_ObjectHideFlags: 0
  m_CorrespondingSourceObject: {fileID: 0}
  m_PrefabInternal: {fileID: 0}
  m_Name: Walk_side
  serializedVersion: 6
  m_Legacy: 0
  m_Compressed: 0
  m_UseHighQualityCurve: 1
  m_RotationCurves: []
  m_CompressedRotationCurves: []
  m_EulerCurves: []
  m_PositionCurves: []
  m_ScaleCurves: []
  m_FloatCurves: []
  m_PPtrCurves:
  - curve:
    - time: 0
      value: {fileID: 21300000, guid: 3dbdc41cf702cc04fa8a507fbcffe911, type: 3}
    - time: 0.04761905
      value: {fileID: 21300000, guid: f1fdcc0999fea794685311c39b42e088, type: 3}
    - time: 0.0952381
      value: {fileID: 21300000, guid: 8bacaf56a38bf774db917cca1a7d8c67, type: 3}
    - time: 0.14285715
      value: {fileID: 21300000, guid: 046dcfe76e2225549842588a698bc8aa, type: 3}
    - time: 0.1904762
      value: {fileID: 21300000, guid: ed75957473392494e8977ce91498de9e, type: 3}
    - time: 0.23809524
      value: {fileID: 21300000, guid: 0933e83f6b3a321408348a070170a9da, type: 3}
    - time: 0.2857143
      value: {fileID: 21300000, guid: 74a4ee465a9ccfd49a2022cc81d782c2, type: 3}
    - time: 0.33333334
      value: {fileID: 21300000, guid: 5fa1fd83f354f514aa0d9e9104460d4f, type: 3}
    - time: 0.3809524
      value: {fileID: 21300000, guid: a79c4198bdb3b9246988c8d971700ecb, type: 3}
    - time: 0.42857143
      value: {fileID: 21300000, guid: 4fd9fbb70aa115e4d89e51739ed0ff27, type: 3}
    - time: 0.47619048
      value: {fileID: 21300000, guid: 8f4566e48f8e36845b9c0dc9ea6a2b5f, type: 3}
    - time: 0.52380955
      value: {fileID: 21300000, guid: bbe8355edb7b1414cb4cb926552f7dff, type: 3}
    attribute: m_Sprite
    path: 
    classID: 212
    script: {fileID: 0}
  m_SampleRate: 21
  m_WrapMode: 0
  m_Bounds:
    m_Center: {x: 0, y: 0, z: 0}
    m_Extent: {x: 0, y: 0, z: 0}
  m_ClipBindingConstant:
    genericBindings:
    - serializedVersion: 2
      path: 0
      attribute: 0
      script: {fileID: 0}
      typeID: 212
      customType: 23
      isPPtrCurve: 1
    pptrCurveMapping:
    - {fileID: 21300000, guid: 3dbdc41cf702cc04fa8a507fbcffe911, type: 3}
    - {fileID: 21300000, guid: f1fdcc0999fea794685311c39b42e088, type: 3}
    - {fileID: 21300000, guid: 8bacaf56a38bf774db917cca1a7d8c67, type: 3}
    - {fileID: 21300000, guid: 046dcfe76e2225549842588a698bc8aa, type: 3}
    - {fileID: 21300000, guid: ed75957473392494e8977ce91498de9e, type: 3}
    - {fileID: 21300000, guid: 0933e83f6b3a321408348a070170a9da, type: 3}
    - {fileID: 21300000, guid: 74a4ee465a9ccfd49a2022cc81d782c2, type: 3}
    - {fileID: 21300000, guid: 5fa1fd83f354f514aa0d9e9104460d4f, type: 3}
    - {fileID: 21300000, guid: a79c4198bdb3b9246988c8d971700ecb, type: 3}
    - {fileID: 21300000, guid: 4fd9fbb70aa115e4d89e51739ed0ff27, type: 3}
    - {fileID: 21300000, guid: 8f4566e48f8e36845b9c0dc9ea6a2b5f, type: 3}
    - {fileID: 21300000, guid: bbe8355edb7b1414cb4cb926552f7dff, type: 3}
  m_AnimationClipSettings:
    serializedVersion: 2
    m_AdditiveReferencePoseClip: {fileID: 0}
    m_AdditiveReferencePoseTime: 0
    m_StartTime: 0
    m_StopTime: 0.5714286
    m_OrientationOffsetY: 0
    m_Level: 0
    m_CycleOffset: 0
    m_HasAdditiveReferencePose: 0
    m_LoopTime: 1
    m_LoopBlend: 0
    m_LoopBlendOrientation: 0
    m_LoopBlendPositionY: 0
    m_LoopBlendPositionXZ: 0
    m_KeepOriginalOrientation: 0
    m_KeepOriginalPositionY: 1
    m_KeepOriginalPositionXZ: 0
    m_HeightFromFeet: 0
    m_Mirror: 0
  m_EditorCurves: []
  m_EulerEditorCurves: []
  m_HasGenericRootTransform: 0
  m_HasMotionFloatCurves: 0
  m_GenerateMotionCurves: 0
  m_Events: []
